info face="BaseFont-export" size=32 bold=0 italic=0 charset="" unicode=0 stretchH=100 smooth=1 aa=1 padding=0,0,0,0 spacing=2,2
common lineHeight=88 base=26 scaleW=798 scaleH=805 pages=1 packed=0 alphaChnl=1 redChnl=0 greenChnl=0 blueChnl=0
page id=0 file="BaseFont-export.png"
chars count=96
char id=33 x=750 y=615 width=45 height=87 xoffset=0 yoffset=1 xadvance=49 page=0 chnl=0 letter="!"
char id=34 x=629 y=110 width=45 height=43 xoffset=0 yoffset=2 xadvance=49 page=0 chnl=0 letter="""
char id=35 x=0 y=531 width=96 height=87 xoffset=0 yoffset=1 xadvance=100 page=0 chnl=0 letter="#"
char id=36 x=126 y=0 width=90 height=101 xoffset=0 yoffset=-6 xadvance=94 page=0 chnl=0 letter="$"
char id=37 x=98 y=619 width=92 height=88 xoffset=0 yoffset=0 xadvance=96 page=0 chnl=0 letter="%"
char id=38 x=109 y=178 width=91 height=88 xoffset=0 yoffset=1 xadvance=95 page=0 chnl=0 letter="&"
char id=39 x=719 y=389 width=27 height=41 xoffset=0 yoffset=1 xadvance=31 page=0 chnl=0 letter="'"
char id=40 x=745 y=0 width=51 height=99 xoffset=0 yoffset=1 xadvance=55 page=0 chnl=0 letter="("
char id=41 x=692 y=0 width=51 height=99 xoffset=0 yoffset=1 xadvance=55 page=0 chnl=0 letter=")"
char id=42 x=627 y=288 width=50 height=51 xoffset=0 yoffset=1 xadvance=54 page=0 chnl=0 letter="*"
char id=43 x=465 y=636 width=74 height=75 xoffset=0 yoffset=13 xadvance=78 page=0 chnl=0 letter="+"
char id=44 x=690 y=389 width=27 height=41 xoffset=0 yoffset=60 xadvance=31 page=0 chnl=0 letter=","
char id=45 x=285 y=579 width=49 height=28 xoffset=0 yoffset=39 xadvance=53 page=0 chnl=0 letter="-"
char id=46 x=625 y=507 width=28 height=28 xoffset=0 yoffset=60 xadvance=32 page=0 chnl=0 letter="."
char id=47 x=468 y=92 width=80 height=97 xoffset=0 yoffset=0 xadvance=84 page=0 chnl=0 letter="/"
char id=48 x=376 y=626 width=87 height=89 xoffset=0 yoffset=0 xadvance=91 page=0 chnl=0 letter="0"
char id=49 x=740 y=526 width=46 height=87 xoffset=0 yoffset=1 xadvance=50 page=0 chnl=0 letter="1"
char id=50 x=285 y=356 width=89 height=87 xoffset=0 yoffset=1 xadvance=93 page=0 chnl=0 letter="2"
char id=51 x=465 y=547 width=84 height=87 xoffset=0 yoffset=1 xadvance=88 page=0 chnl=0 letter="3"
char id=52 x=284 y=618 width=89 height=87 xoffset=0 yoffset=1 xadvance=93 page=0 chnl=0 letter="4"
char id=53 x=193 y=441 width=90 height=87 xoffset=0 yoffset=1 xadvance=94 page=0 chnl=0 letter="5"
char id=54 x=285 y=445 width=88 height=87 xoffset=0 yoffset=1 xadvance=92 page=0 chnl=0 letter="6"
char id=55 x=0 y=442 width=97 height=87 xoffset=0 yoffset=1 xadvance=101 page=0 chnl=0 letter="7"
char id=56 x=289 y=192 width=88 height=86 xoffset=0 yoffset=1 xadvance=92 page=0 chnl=0 letter="8"
char id=57 x=376 y=280 width=87 height=87 xoffset=0 yoffset=0 xadvance=91 page=0 chnl=0 letter="9"
char id=58 x=685 y=723 width=35 height=55 xoffset=0 yoffset=33 xadvance=39 page=0 chnl=0 letter=":"
char id=59 x=722 y=717 width=35 height=68 xoffset=0 yoffset=33 xadvance=39 page=0 chnl=0 letter=";"
char id=60 x=376 y=369 width=78 height=74 xoffset=0 yoffset=13 xadvance=82 page=0 chnl=0 letter="<"
char id=61 x=202 y=192 width=79 height=46 xoffset=0 yoffset=27 xadvance=83 page=0 chnl=0 letter="="
char id=62 x=197 y=356 width=79 height=75 xoffset=0 yoffset=13 xadvance=83 page=0 chnl=0 letter=">"
char id=63 x=375 y=445 width=87 height=87 xoffset=0 yoffset=1 xadvance=91 page=0 chnl=0 letter="?"
char id=64 x=0 y=178 width=107 height=103 xoffset=0 yoffset=0 xadvance=111 page=0 chnl=0 letter="@"
char id=65 x=104 y=353 width=91 height=86 xoffset=0 yoffset=1 xadvance=95 page=0 chnl=0 letter="A"
char id=66 x=285 y=707 width=89 height=86 xoffset=0 yoffset=1 xadvance=93 page=0 chnl=0 letter="B"
char id=67 x=460 y=717 width=82 height=86 xoffset=0 yoffset=1 xadvance=86 page=0 chnl=0 letter="C"
char id=68 x=193 y=708 width=90 height=86 xoffset=0 yoffset=1 xadvance=94 page=0 chnl=0 letter="D"
char id=69 x=376 y=717 width=82 height=86 xoffset=0 yoffset=1 xadvance=86 page=0 chnl=0 letter="E"
char id=70 x=197 y=268 width=90 height=86 xoffset=0 yoffset=1 xadvance=94 page=0 chnl=0 letter="F"
char id=71 x=193 y=530 width=90 height=86 xoffset=0 yoffset=1 xadvance=94 page=0 chnl=0 letter="G"
char id=72 x=218 y=0 width=89 height=86 xoffset=0 yoffset=1 xadvance=93 page=0 chnl=0 letter="H"
char id=73 x=691 y=526 width=47 height=87 xoffset=0 yoffset=1 xadvance=51 page=0 chnl=0 letter="I"
char id=74 x=465 y=266 width=81 height=87 xoffset=0 yoffset=1 xadvance=85 page=0 chnl=0 letter="J"
char id=75 x=0 y=620 width=96 height=87 xoffset=0 yoffset=1 xadvance=100 page=0 chnl=0 letter="K"
char id=76 x=691 y=110 width=58 height=87 xoffset=0 yoffset=1 xadvance=62 page=0 chnl=0 letter="L"
char id=77 x=0 y=89 width=112 height=87 xoffset=0 yoffset=1 xadvance=116 page=0 chnl=0 letter="M"
char id=78 x=97 y=709 width=94 height=87 xoffset=0 yoffset=1 xadvance=98 page=0 chnl=0 letter="N"
char id=79 x=375 y=534 width=87 height=90 xoffset=0 yoffset=-1 xadvance=91 page=0 chnl=0 letter="O"
char id=80 x=202 y=103 width=89 height=87 xoffset=0 yoffset=1 xadvance=93 page=0 chnl=0 letter="P"
char id=81 x=383 y=0 width=87 height=90 xoffset=0 yoffset=-1 xadvance=91 page=0 chnl=0 letter="Q"
char id=82 x=293 y=88 width=88 height=87 xoffset=0 yoffset=1 xadvance=92 page=0 chnl=0 letter="R"
char id=83 x=98 y=531 width=93 height=86 xoffset=0 yoffset=1 xadvance=97 page=0 chnl=0 letter="S"
char id=84 x=472 y=0 width=78 height=87 xoffset=0 yoffset=1 xadvance=82 page=0 chnl=0 letter="T"
char id=85 x=379 y=177 width=87 height=87 xoffset=0 yoffset=1 xadvance=91 page=0 chnl=0 letter="U"
char id=86 x=192 y=619 width=90 height=87 xoffset=0 yoffset=1 xadvance=94 page=0 chnl=0 letter="V"
char id=87 x=0 y=0 width=124 height=87 xoffset=0 yoffset=1 xadvance=128 page=0 chnl=0 letter="W"
char id=88 x=0 y=353 width=102 height=87 xoffset=0 yoffset=1 xadvance=106 page=0 chnl=0 letter="X"
char id=89 x=464 y=369 width=86 height=87 xoffset=0 yoffset=1 xadvance=90 page=0 chnl=0 letter="Y"
char id=90 x=99 y=442 width=92 height=87 xoffset=0 yoffset=1 xadvance=96 page=0 chnl=0 letter="Z"
char id=91 x=690 y=288 width=58 height=99 xoffset=0 yoffset=1 xadvance=62 page=0 chnl=0 letter="["
char id=92 x=759 y=704 width=34 height=97 xoffset=0 yoffset=0 xadvance=38 page=0 chnl=0 letter="\"
char id=93 x=689 y=616 width=59 height=99 xoffset=0 yoffset=1 xadvance=63 page=0 chnl=0 letter="]"
char id=94 x=285 y=534 width=77 height=43 xoffset=0 yoffset=1 xadvance=81 page=0 chnl=0 letter="^"
char id=95 x=114 y=142 width=66 height=25 xoffset=0 yoffset=86 xadvance=70 page=0 chnl=0 letter="_"
char id=96 x=336 y=579 width=37 height=29 xoffset=0 yoffset=0 xadvance=41 page=0 chnl=0 letter="`"
char id=97 x=551 y=546 width=69 height=68 xoffset=0 yoffset=20 xadvance=73 page=0 chnl=0 letter="a"
char id=98 x=309 y=0 width=72 height=86 xoffset=0 yoffset=1 xadvance=76 page=0 chnl=0 letter="b"
char id=99 x=622 y=367 width=66 height=68 xoffset=0 yoffset=20 xadvance=70 page=0 chnl=0 letter="c"
char id=100 x=550 y=89 width=77 height=87 xoffset=0 yoffset=1 xadvance=81 page=0 chnl=0 letter="d"
char id=101 x=622 y=546 width=67 height=68 xoffset=0 yoffset=20 xadvance=71 page=0 chnl=0 letter="e"
char id=102 x=687 y=437 width=59 height=87 xoffset=0 yoffset=1 xadvance=63 page=0 chnl=0 letter="f"
char id=103 x=544 y=636 width=78 height=86 xoffset=0 yoffset=20 xadvance=82 page=0 chnl=0 letter="g"
char id=104 x=552 y=367 width=68 height=87 xoffset=0 yoffset=1 xadvance=72 page=0 chnl=0 letter="h"
char id=105 x=750 y=288 width=45 height=87 xoffset=0 yoffset=1 xadvance=49 page=0 chnl=0 letter="i"
char id=106 x=624 y=616 width=63 height=105 xoffset=0 yoffset=1 xadvance=67 page=0 chnl=0 letter="j"
char id=107 x=464 y=458 width=85 height=87 xoffset=0 yoffset=1 xadvance=89 page=0 chnl=0 letter="k"
char id=108 x=747 y=199 width=46 height=87 xoffset=0 yoffset=1 xadvance=50 page=0 chnl=0 letter="l"
char id=109 x=0 y=709 width=95 height=68 xoffset=0 yoffset=20 xadvance=99 page=0 chnl=0 letter="m"
char id=110 x=615 y=724 width=68 height=68 xoffset=0 yoffset=20 xadvance=72 page=0 chnl=0 letter="n"
char id=111 x=544 y=724 width=69 height=70 xoffset=0 yoffset=19 xadvance=73 page=0 chnl=0 letter="o"
char id=112 x=548 y=279 width=77 height=86 xoffset=0 yoffset=20 xadvance=81 page=0 chnl=0 letter="p"
char id=113 x=551 y=458 width=72 height=86 xoffset=0 yoffset=20 xadvance=76 page=0 chnl=0 letter="q"
char id=114 x=625 y=437 width=60 height=68 xoffset=0 yoffset=20 xadvance=64 page=0 chnl=0 letter="r"
char id=115 x=468 y=191 width=74 height=68 xoffset=0 yoffset=20 xadvance=78 page=0 chnl=0 letter="s"
char id=116 x=691 y=199 width=54 height=87 xoffset=0 yoffset=1 xadvance=58 page=0 chnl=0 letter="t"
char id=117 x=552 y=0 width=68 height=68 xoffset=0 yoffset=20 xadvance=72 page=0 chnl=0 letter="u"
char id=118 x=383 y=92 width=75 height=68 xoffset=0 yoffset=20 xadvance=79 page=0 chnl=0 letter="v"
char id=119 x=0 y=283 width=104 height=68 xoffset=0 yoffset=20 xadvance=108 page=0 chnl=0 letter="w"
char id=120 x=106 y=283 width=88 height=68 xoffset=0 yoffset=20 xadvance=92 page=0 chnl=0 letter="x"
char id=121 x=548 y=191 width=78 height=86 xoffset=0 yoffset=20 xadvance=82 page=0 chnl=0 letter="y"
char id=122 x=289 y=280 width=76 height=68 xoffset=0 yoffset=20 xadvance=80 page=0 chnl=0 letter="z"
char id=123 x=629 y=0 width=61 height=108 xoffset=0 yoffset=0 xadvance=65 page=0 chnl=0 letter="{"
char id=124 x=748 y=389 width=48 height=115 xoffset=0 yoffset=-4 xadvance=52 page=0 chnl=0 letter="|"
char id=125 x=628 y=178 width=61 height=108 xoffset=0 yoffset=0 xadvance=65 page=0 chnl=0 letter="}"
char id=126 x=114 y=103 width=79 height=37 xoffset=0 yoffset=4 xadvance=83 page=0 chnl=0 letter="~"
char id=32 x=0 y=0 width=0 height=0 xoffset=0 yoffset=0 xadvance=12 page=0 chnl=0 letter=" "
char id=9 x=0 y=0 width=0 height=0 xoffset=0 yoffset=0 xadvance=96 page=0 chnl=0 letter="	"

kernings count=0
